{
  "resource": "Children",
  "resource_explanation": "Endpoint for children resources",
  "http_method": "PUT",
  "route": "/api/v1/children/:id",
  "description": "Failed to update",
  "explanation": null,
  "parameters": [
    {
      "scope": "child",
      "required": true,
      "name": "name",
      "description": "Child name"
    },
    {
      "scope": "child",
      "required": true,
      "name": "stage",
      "description": "Child education stage/level"
    },
    {
      "scope": "child",
      "required": true,
      "name": "school_id",
      "description": "School ID"
    },
    {
      "scope": "child",
      "name": "avatar",
      "description": "Avatar"
    }
  ],
  "response_fields": [

  ],
  "requests": [
    {
      "request_method": "PUT",
      "request_path": "/api/v1/children/39f2b147-0d4d-4d72-801b-fb5abcb38cd1",
      "request_body": "child[name]",
      "request_headers": {
        "Content-Type": "multipart/form-data",
        "Authorization": "Bearer eyJhbGciOiJIUzI1NiJ9.eyJzdWIiOiIxOSIsInNjcCI6ImFjY291bnQiLCJhdWQiOm51bGwsImlhdCI6MTU0NjY5NzMwOSwiZXhwIjoxNTQ5MzI3MDU1LCJqdGkiOiIyZmY2YTllYS0wYzM5LTQzMmItOGNkMC1kY2FlMzg0ODU3NzAifQ.HQMMU7AukgO6gU6Ub7FHhggFHxurX2x8RvXkcwgno-8",
        "Host": "example.org",
        "Cookie": ""
      },
      "request_query_parameters": {
      },
      "request_content_type": "multipart/form-data",
      "response_status": 422,
      "response_status_text": "Unprocessable Entity",
      "response_body": "{\n  \"name\": [\n    \"can't be blank\"\n  ]\n}",
      "response_headers": {
        "Content-Type": "application/json; charset=utf-8",
        "Cache-Control": "no-cache",
        "Set-Cookie": "_schubo_session=niE4soKn%2F5X5X%2F0HrxZN7yNK6Q%2BDM2MDh3w7MIOsCrSB8aAk9zC5kv5obVTlDONCZQ%3D%3D--YoTQjOrxuDIw92CI--b0A5phmuavWx73sDnlVrpA%3D%3D; path=/; HttpOnly",
        "X-Request-Id": "73b9d07f-9ee9-4cc9-b9c9-d05a82e0d9ae",
        "X-Runtime": "0.020399",
        "Content-Length": "27"
      },
      "response_content_type": "application/json; charset=utf-8",
      "curl": null
    }
  ]
}