{
  "resource": "Schools",
  "resource_explanation": "Endpoint for school resources",
  "http_method": "GET",
  "route": "/api/v1/schools",
  "description": "Unauthorized",
  "explanation": null,
  "parameters": [

  ],
  "response_fields": [

  ],
  "requests": [
    {
      "request_method": "GET",
      "request_path": "/api/v1/schools",
      "request_body": null,
      "request_headers": {
        "Content-Type": "application/json",
        "Authorization": "Bearer eyJhbGciOiJIUzI1NiJ9.eyJzdWIiOiIzMCIsInNjcCI6ImFjY291bnQiLCJhdWQiOm51bGwsImlhdCI6MTU0NjY5NzMxMiwiZXhwIjoxNTQ5MzI3MDU4LCJqdGkiOiIxYmJhODVkMS04NTNmLTQ3MjktOTQ3NC02NWNkM2YwNDY4MjkifQ.HeHJZPdP0wlgniD3nmfoIp2UBdE-smQq-nMom56kAMc",
        "Host": "example.org",
        "Cookie": ""
      },
      "request_query_parameters": {
      },
      "request_content_type": "application/json",
      "response_status": 401,
      "response_status_text": "Unauthorized",
      "response_body": "{\n}",
      "response_headers": {
        "Content-Type": "application/json; charset=utf-8",
        "Cache-Control": "no-cache",
        "Set-Cookie": "_schubo_session=evJDJH2ciWsBR%2BqpeszeTaxQdMwAerFQcNXVDPJmJT6wm5nhHCqbuqTGZfpAt2Y7aw%3D%3D--jOd16WFfXlY7%2Baqd--%2BGo98dRdKgOzo2S62gnMXQ%3D%3D; path=/; HttpOnly",
        "X-Request-Id": "86c78367-9c25-46b4-bf9e-5a2297430ebd",
        "X-Runtime": "0.009443",
        "Content-Length": "2"
      },
      "response_content_type": "application/json; charset=utf-8",
      "curl": null
    }
  ]
}