{
  "resource": "Bookings",
  "resource_explanation": "Endpoint for booking resources",
  "http_method": "GET",
  "route": "/api/v1/bookings/:id",
  "description": "Get single booking (with child token)",
  "explanation": "Detail of single bookings",
  "parameters": [

  ],
  "response_fields": [

  ],
  "requests": [
    {
      "request_method": "GET",
      "request_path": "/api/v1/bookings/4",
      "request_body": null,
      "request_headers": {
        "Content-Type": "application/json",
        "Authorization": "Bearer eyJhbGciOiJIUzI1NiJ9.eyJzdWIiOiJjYzRhMTRjNC1mYzIyLTRhMTYtYjE2NS00OTM1MDQ2ZjFkOTQiLCJzY3AiOiJjaGlsZCIsImlhdCI6MTU0NjY5NzMwNSwiZXhwIjoxNTQ5MzI3MDUxLCJqdGkiOiIwODBkNzNlMi0wNmE1LTRiMDEtOTBkZC02NWE0MWZhNjE5ZDAifQ.DjLwVEzbQbJOiVti-tG_svJYsGjNBjY4yLg79ZxCCrE",
        "Host": "example.org",
        "Cookie": ""
      },
      "request_query_parameters": {
      },
      "request_content_type": "application/json",
      "response_status": 200,
      "response_status_text": "OK",
      "response_body": "{\n  \"id\": 4,\n  \"date\": \"2019-01-06\",\n  \"trip_type\": \"both_ways\",\n  \"status\": \"active\",\n  \"school\": {\n    \"id\": 7,\n    \"name\": \"Reichel-Huel\",\n    \"street\": \"Isaias Oval\",\n    \"street_number\": \"1006\",\n    \"zipcode\": \"37346\",\n    \"town\": \"Doughaven\",\n    \"phone_no\": \"833-158-9089\",\n    \"latitude\": null,\n    \"longitude\": null\n  },\n  \"parent\": {\n    \"id\": 6,\n    \"first_name\": \"Slyvia\",\n    \"last_name\": \"Padberg\",\n    \"street\": \"Napoleon Extension\",\n    \"street_number\": \"7512\",\n    \"zipcode\": \"24485\",\n    \"town\": \"North Kennethstad\",\n    \"phone_no\": \"(816) 768-9401\"\n  },\n  \"meeting_point\": {\n    \"id\": 4,\n    \"name\": \"Will, Skiles and Olson\",\n    \"street\": \"Balistreri Valley\",\n    \"street_number\": \"3407\",\n    \"zipcode\": \"19685\",\n    \"town\": \"North Venaport\",\n    \"latitude\": null,\n    \"longitude\": null\n  },\n  \"children\": [\n    {\n      \"id\": \"cc4a14c4-fc22-4a16-b165-4935046f1d94\",\n      \"name\": \"Meghan\",\n      \"stage\": 3,\n      \"active\": true,\n      \"avatar_url\": null\n    }\n  ]\n}",
      "response_headers": {
        "Content-Type": "application/json; charset=utf-8",
        "ETag": "W/\"c1aa2a2aa8ed34613c873c3f9c9d2ccb\"",
        "Cache-Control": "max-age=0, private, must-revalidate",
        "X-Request-Id": "4a1818d0-23ae-4097-b7f5-8ada5aae3338",
        "X-Runtime": "0.013049",
        "Content-Length": "741"
      },
      "response_content_type": "application/json; charset=utf-8",
      "curl": null
    }
  ]
}