{
  "resource": "Bookings",
  "resource_explanation": "Endpoint for booking resources",
  "http_method": "GET",
  "route": "/api/v1/bookings",
  "description": "Get all bookings (with parent token)",
  "explanation": "List of all bookings scoped to the current user (parent)",
  "parameters": [

  ],
  "response_fields": [

  ],
  "requests": [
    {
      "request_method": "GET",
      "request_path": "/api/v1/bookings",
      "request_body": null,
      "request_headers": {
        "Content-Type": "application/json",
        "Authorization": "Bearer eyJhbGciOiJIUzI1NiJ9.eyJzdWIiOiIzIiwic2NwIjoiYWNjb3VudCIsImF1ZCI6bnVsbCwiaWF0IjoxNTQ2Njk3MzA0LCJleHAiOjE1NDkzMjcwNTAsImp0aSI6IjhiZmEwZWJkLTZmYTktNDUzZC1hNGI5LWQ2YzE0OTM4NDIxMiJ9.Mzk-mVMpb94NpkWZH90C-TGivObcLD-Tv8HbCuIjFvg",
        "Host": "example.org",
        "Cookie": ""
      },
      "request_query_parameters": {
      },
      "request_content_type": "application/json",
      "response_status": 200,
      "response_status_text": "OK",
      "response_body": "[\n  {\n    \"id\": 1,\n    \"date\": \"2019-01-15\",\n    \"trip_type\": \"both_ways\",\n    \"status\": \"active\",\n    \"school\": {\n      \"id\": 1,\n      \"name\": \"Gibson-Rogahn\",\n      \"street\": \"Kathern Stravenue\",\n      \"street_number\": \"88771\",\n      \"zipcode\": \"09460-3120\",\n      \"town\": \"Cronintown\",\n      \"phone_no\": \"(681) 172-6784\",\n      \"latitude\": null,\n      \"longitude\": null\n    },\n    \"parent\": {\n      \"id\": 3,\n      \"first_name\": \"Cheyenne\",\n      \"last_name\": \"Cummings\",\n      \"street\": \"Price Squares\",\n      \"street_number\": \"72493\",\n      \"zipcode\": \"44020\",\n      \"town\": \"West Chris\",\n      \"phone_no\": \"(442) 363-8499\"\n    },\n    \"meeting_point\": {\n      \"id\": 1,\n      \"name\": \"Zboncak and Sons\",\n      \"street\": \"Isaiah Prairie\",\n      \"street_number\": \"798\",\n      \"zipcode\": \"27937-8773\",\n      \"town\": \"West Joe\",\n      \"latitude\": null,\n      \"longitude\": null\n    },\n    \"children\": [\n      {\n        \"id\": \"ed7010be-bd91-453c-8904-4ea154004af4\",\n        \"name\": \"Audrie\",\n        \"stage\": 13,\n        \"active\": true,\n        \"avatar_url\": null\n      }\n    ]\n  }\n]",
      "response_headers": {
        "Content-Type": "application/json; charset=utf-8",
        "ETag": "W/\"097f6d1a168087e55810a56255675d24\"",
        "Cache-Control": "max-age=0, private, must-revalidate",
        "Set-Cookie": "_schubo_session=snho4Gl%2F9sa7eR39LXuCy724%2BhZFNZIbng1sKgcg8rD0%2BmpN7j8N3SUh7tQ0pTnuLA%3D%3D--Kmx8jDqnZVq7Rgt9--8S9%2FzTjlSRlEV5uQAw%2FbsA%3D%3D; path=/; HttpOnly",
        "X-Request-Id": "0986088d-9820-46d3-914f-7c59e1475c41",
        "X-Runtime": "0.055507",
        "Content-Length": "741"
      },
      "response_content_type": "application/json; charset=utf-8",
      "curl": null
    }
  ]
}